{
  "images" : [
    {
      "idiom" : "universal",
      "filename" : "rectangle.png",
      "scale" : "1x"
    },
    {
      "idiom" : "universal",
      "filename" : "_50400_rd_speak_start_normal.png",
      "appearances" : [
        {
          "appearance" : "luminosity",
          "value" : "dark"
        }
      ],
      "scale" : "1x"
    },
    {
      "idiom" : "universal",
      "filename" : "rectangle@2x.png",
      "scale" : "2x"
    },
    {
      "idiom" : "universal",
      "filename" : "_50400_rd_speak_start_normal@2x.png",
      "appearances" : [
        {
          "appearance" : "luminosity",
          "value" : "dark"
        }
      ],
      "scale" : "2x"
    },
    {
      "idiom" : "universal",
      "filename" : "rectangle@3x.png",
      "scale" : "3x"
    },
    {
      "idiom" : "universal",
      "filename" : "_50400_rd_speak_start_normal@3x.png",
      "appearances" : [
        {
          "appearance" : "luminosity",
          "value" : "dark"
        }
      ],
      "scale" : "3x"
    }
  ],
  "info" : {
    "version" : 1,
    "author" : "xcode"
  }
}